"accountId","externalId","facilityId","accountName","isDeleted","createdAt","updatedAt","email_akt","hasSharedTarget_akt","discussedTopic_akt","chxSampleEligibility_akt","xelSegment_akt","brandFlag_akt","channelPreferencePos_akt","driverLyrica_akt","barrierLyrica_akt","channelPreferenceNeg_akt","bosSegment_akt","hasSharedTargetC2C3_akt","hasSharedTargetC1C3_akt","barrierLyricaTop1_akt","barrierLyricaTop2_akt","barrierLyricaTop3_akt","driverLyricaTop1_akt","driverLyricaTop2_akt","driverLyricaTop3_akt","accessDesignation_akt","sampleCommercialAccess_akt","lastSlideUsed_akt","enumHcpSpecialty_akt","embedaBrandFlag_akt","duaveeNRxQuintile_akt","estringTRxQuintile_akt","premarinOralNRxQuintile_akt","pvcTRxQuintile_akt","whBrandPriorities_akt","opioidFlag_akt","chxEucBalanceFlag_akt","enumBrandedPreference_akt","enumChxZDCPHotList_akt","enumDuloxetinePreference_akt","enumLyrDosingCode_akt","enumLyrInsightCode_akt","enumLyrInsightSlideCode_akt","LyrChannelFocus_akt","xtandiBrandPriority_akt"
3357,"001A0000002oPFxIAM",773705,"NOWARAT SONGSIRIDEJ",0,"2015-11-12 18:58:11","2017-11-05 03:28:47","yes",NA,NA,NA,"Xeljanz Patient","Lyrica FM Priority","","Favorable Medicare access,Limited historical duloxetine usage","Poor LYRICA doser,Unfavorable commercial access","Does not Show Receptivity to Physical Materials",NA,"no","no","Poor LYRICA doser","Poor LYRICA doser,Unfavorable commercial access","Poor LYRICA doser,Unfavorable commercial access,","Favorable Medicare access","Favorable Medicare access,Limited historical duloxetine usage","Favorable Medicare access,Limited historical duloxetine usage,LYRICA LoT >180 days",NA,NA,NA,"RHU - RHEUMATOLOGY",NA,NA,NA,NA,NA,NA,NA,"1","yes","no","no","DOSE1","8","1","",NA
5490,"001A0000002qANOIA2",5470,"ERDAL DIRI",0,"2015-11-12 18:58:27","2017-11-05 03:28:47","no",NA,NA,NA,"Xeljanz Patient","Lyrica FM Priority","Prefers Digital Content","Favorable Medicare access,Favorable branded preferences outside pain","Poor Gaba doser,Poor LYRICA doser","Does not Show Receptivity to Physical Materials",NA,"no","no","Poor Gaba doser","Poor Gaba doser,Poor LYRICA doser","Poor Gaba doser,Poor LYRICA doser,Unfavorable market access","Favorable Medicare access","Favorable Medicare access,Favorable branded preferences outside pain","Favorable Medicare access,Favorable branded preferences outside pain,Limited historical duloxetine usage",NA,NA,NA,"RHU - RHEUMATOLOGY",NA,NA,NA,NA,NA,NA,"yes","0","yes","no","no","DOSE2","1","1","Commercial",NA
174755,"001A0000002oocdIAA",1126735,"CHERYL REE",0,"2016-06-02 23:07:10","2017-11-05 03:28:47","no",NA,NA,NA,NA,"Lyrica FM+pDPN Both Priority","Responds to Physical Materials","Favorable Medicare access,LYRICA LoT >180 days","Unfavorable market access,Unfavorable branded preferences outside pain","",NA,"no","no","Unfavorable market access","Unfavorable market access,Unfavorable branded preferences outside pain","Unfavorable market access,Unfavorable branded preferences outside pain,Poor LYRICA doser","Favorable Medicare access","Favorable Medicare access,LYRICA LoT >180 days","Favorable Medicare access,LYRICA LoT >180 days,Limited historical duloxetine usage",NA,NA,NA,"FM - FAMILY MEDICINE",NA,NA,NA,NA,NA,NA,"yes","0","no","yes","no",NA,"6","1","",NA
416945,"001A0000002muPlIAI",1924002,"WILLIAM HAGER",0,"2017-02-15 23:49:59","2017-11-05 03:28:40","no",NA,NA,NA,NA,"Lyrica pDPN Priority","","","","",NA,"no","no","","","","","","",NA,NA,NA,"GYN - GYNECOLOGY",NA,"4","1","5","5","PREMARIN VAGINAL CREAM (P1), PREMARIN ORAL (P2), DUAVEE (P3), ESTRING (P4)",NA,NA,"no","no","no",NA,NA,"1",NA,NA
423705,"001A0000002pog2IAA",1946783,"DAVID BARRERE",0,"2017-02-15 23:54:27","2017-11-05 03:28:40","no",NA,NA,NA,NA,"Lyrica pDPN Priority","","","","",NA,"no","no","","","","","","",NA,NA,NA,"OBG - OBSTETRICS/GYNECOLOGY",NA,"0","0","0","0","PREMARIN VAGINAL CREAM (P1), PREMARIN ORAL (P2)",NA,NA,"no","no","no",NA,NA,"1",NA,NA
