repId,completeProb,completeConfidence,rescheduleProb,rescheduleConfidence,learningRunUID,learningBuildUID,runDate,createdAt,updatedAt
1505,0.333333333333333,0.692015713083193,0.444444444444444,0.675356056600031,"RUN_UID","unit-test-anchor",2017-11-01,2019-06-28 11:36:27,2019-06-28 11:36:27
1605,1,1,0,1,"RUN_UID","unit-test-anchor",2017-11-01,2019-06-28 11:36:27,2019-06-28 11:36:27
