year, month, repUID, repName, seConfigId, seConfigName, repTeamUID, repTeamName, suggestionType, territoryId, territoryName, totalSuggestionsDeliveredTimes, engagedUniqueSuggestionsCount
2018,1,g,Rep7,1,a,A,A,Target,1,territoryA,2,1
2018,1,g,Rep7,1,a,A,A,Trigger,1,territoryA,1,1
2018,1,f,Rep6,1,a,A,A,Trigger,1,territoryA,2,2
2018,1,f,Rep6,1,a,A,A,Target,1,territoryA,1,1
2018,1,e,Rep5,1,a,A,A,Target,1,territoryA,2,2
2018,1,e,Rep5,1,a,A,A,Trigger,1,territoryA,1,0
2018,1,h,Rep8,1,a,A,A,Target,1,territoryA,1,1
2018,1,h,Rep8,1,a,A,A,Trigger,1,territoryA,2,2
2018,1,d,Rep4,1,a,A,A,Trigger,1,territoryA,2,2
2018,1,d,Rep4,1,a,A,A,Target,1,territoryA,1,0
2018,1,c,Rep3,1,a,A,A,Target,1,territoryA,2,0
2018,1,c,Rep3,1,a,A,A,Trigger,1,territoryA,1,1
2018,1,i,Rep9,1,a,A,A,Target,1,territoryA,2,2
2018,1,i,Rep9,1,a,A,A,Trigger,1,territoryA,1,1
2018,1,j,Rep10,1,a,A,A,Target,1,territoryA,1,1
2018,1,j,Rep10,1,a,A,A,Trigger,1,territoryA,2,2
2018,1,b,Rep2,1,a,A,A,Trigger,1,territoryA,2,2
2018,1,b,Rep2,1,a,A,A,Target,1,territoryA,1,0
2018,1,a,Rep1,1,a,A,A,Target,1,territoryA,2,0
2018,1,a,Rep1,1,a,A,A,Trigger,1,territoryA,1,1
