cluster,districtName,repName,territoryName,territoryId,externalId,customerId,regionName,activatedDate,isActivated,createdAt,updatedAt,repRole,repBag,seConfigId,testRunGroupId,RunGroupId,dmName,dmUID,startDate,endDate
a,NULL,Rep1,territoryA,1,a,NULL,NULL,NULL,NULL,NULL,NULL,NULL,NULL,NULL,NULL,NULL,NULL,NULL,2018-01-01 12:00:01,2030-01-01 12:00:01
a,NULL,Rep2,territoryA,1,b,NULL,NULL,NULL,NULL,NULL,NULL,NULL,NULL,NULL,NULL,NULL,NULL,NULL,2018-01-01 12:00:01,2030-01-01 12:00:01
a,NULL,Rep3,territoryA,1,c,NULL,NULL,NULL,NULL,NULL,NULL,NULL,NULL,NULL,NULL,NULL,NULL,NULL,2018-01-01 12:00:01,2030-01-01 12:00:01
a,NULL,Rep4,territoryA,1,d,NULL,NULL,NULL,NULL,NULL,NULL,NULL,NULL,NULL,NULL,NULL,NULL,NULL,2018-01-01 12:00:01,2030-01-01 12:00:01
a,NULL,Rep5,territoryA,1,e,NULL,NULL,NULL,NULL,NULL,NULL,NULL,NULL,NULL,NULL,NULL,NULL,NULL,2018-01-01 12:00:01,2030-01-01 12:00:01
a,NULL,Rep6,territoryA,1,f,NULL,NULL,NULL,NULL,NULL,NULL,NULL,NULL,NULL,NULL,NULL,NULL,NULL,2018-01-01 12:00:01,2030-01-01 12:00:01
a,NULL,Rep7,territoryA,1,g,NULL,NULL,NULL,NULL,NULL,NULL,NULL,NULL,NULL,NULL,NULL,NULL,NULL,2018-01-01 12:00:01,2030-01-01 12:00:01
a,NULL,Rep8,territoryA,1,h,NULL,NULL,NULL,NULL,NULL,NULL,NULL,NULL,NULL,NULL,NULL,NULL,NULL,2018-01-01 12:00:01,2030-01-01 12:00:01
a,NULL,Rep9,territoryA,1,i,NULL,NULL,NULL,NULL,NULL,NULL,NULL,NULL,NULL,NULL,NULL,NULL,NULL,2018-01-01 12:00:01,2030-01-01 12:00:01
a,NULL,Rep10,territoryA,1,j,NULL,NULL,NULL,NULL,NULL,NULL,NULL,NULL,NULL,NULL,NULL,NULL,NULL,2018-01-01 12:00:01,2030-01-01 12:00:01
